{
"Actor": {
  "types": ["character"],
  "templates": {
    "base": {
      "attributes": {
        "classe": "",
        "raca": "",
        "origem": "",
        "pv": {
          "value": 10,
          "min": 0,
          "max": 10,
          "temp": 0
        },
        "pm": {
          "value": 10,
          "min": 0,
          "max": 10,
          "temp": 0
        },
        "nivel": {
          "value": 1
        },
        "xp": {
          "value": 0,
          "min": 0,
          "proximo": 1000
        },
        "info": ""
      },
      "defesa": {
        "value": 10,
        "des": true,
        "armad": 0,
        "escud": 0,
        "outro": 0,
        "temp": 0
      },
      "armadura": {
        "nome": "",
        "defesa": 0,
        "penalidade": 0
      },
      "escudo": {
        "nome": "",
        "defesa": 0,
        "penalidade": 0
      },
      "atributos": {
        "for": {
          "value": 10,
          "raca": 0,
          "bonus": 0,
          "temp": 0,
          "mod": 0
        },
        "des": {
          "value": 10,
          "raca": 0,
          "bonus": 0,
          "temp": 0,
          "mod": 0
        },
        "con": {
          "value": 10,
          "raca": 0,
          "bonus": 0,
          "temp": 0,
          "mod": 0
        },
        "int": {
          "value": 10,
          "raca": 0,
          "bonus": 0,
          "temp": 0,
          "mod": 0
        },
        "sab": {
          "value": 10,
          "raca": 0,
          "bonus": 0,
          "temp": 0,
          "mod": 0
        },
        "car": {
          "value": 10,
          "raca": 0,
          "bonus": 0,
          "temp": 0,
          "mod": 0
        }
      },
      "pericias": {
        "acr": {
          "label": "Acrobacia",
          "value": 0,
          "atributo": "des",
          "st": false,
          "pda": true,
          "treinado": false,
          "treino": 0,
          "outros": 0,
          "notes": "",
          "mod": 0
        },
        "ade": {
          "label": "Adestramento",
          "value": 0,
          "atributo": "car",
          "st": true,
          "pda": false,
          "treinado": false,
          "treino": 0,
          "outros": 0,
          "notes": "",
          "mod": 0
        },
        "atl": {
          "label": "Atletismo",
          "value": 0,
          "atributo": "for",
          "st": false,
          "pda": true,
          "treinado": false,
          "treino": 0,
          "outros": 0,
          "notes": "",
          "mod": 0
        },
        "atu": {
          "label": "Atuação",
          "value": 0,
          "atributo": "car",
          "st": false,
          "pda": false,
          "treinado": false,
          "treino": 0,
          "outros": 0,
          "notes": "",
          "mod": 0
        },
        "cav": {
          "label": "Cavalgar",
          "value": 0,
          "atributo": "des",
          "st": false,
          "pda": false,
          "treinado": false,
          "treino": 0,
          "outros": 0,
          "notes": "",
          "mod": 0
        },
        "con": {
          "label": "Conhecimento",
          "value": 0,
          "atributo": "int",
          "st": true,
          "pda": false,
          "treinado": false,
          "treino": 0,
          "outros": 0,
          "notes": "",
          "mod": 0
        },
        "cur": {
          "label": "Cura",
          "value": 0,
          "atributo": "sab",
          "st": true,
          "pda": false,
          "treinado": false,
          "treino": 0,
          "outros": 0,
          "notes": "",
          "mod": 0
        },
        "dip": {
          "label": "Diplomacia",
          "value": 0,
          "atributo": "car",
          "st": false,
          "pda": false,
          "treinado": false,
          "treino": 0,
          "outros": 0,
          "notes": "",
          "mod": 0
        },
        "eng": {
          "label": "Enganação",
          "value": 0,
          "atributo": "car",
          "st": false,
          "pda": false,
          "treinado": false,
          "treino": 0,
          "outros": 0,
          "notes": "",
          "mod": 0
        },
        "for": {
          "label": "Fortitude",
          "value": 0,
          "atributo": "con",
          "st": false,
          "pda": false,
          "treinado": false,
          "treino": 0,
          "outros": 0,
          "notes": "",
          "mod": 0
        },
        "fur": {
          "label": "Furtividade",
          "value": 0,
          "atributo": "des",
          "st": false,
          "pda": true,
          "treinado": false,
          "treino": 0,
          "outros": 0,
          "notes": "",
          "mod": 0
        },
        "gue": {
          "label": "Guerra",
          "value": 0,
          "atributo": "int",
          "st": true,
          "pda": false,
          "treinado": false,
          "treino": 0,
          "outros": 0,
          "notes": "",
          "mod": 0
        },
        "ini": {
          "label": "Iniciativa",
          "value": 0,
          "atributo": "des",
          "st": false,
          "pda": false,
          "treinado": false,
          "treino": 0,
          "outros": 0,
          "notes": "",
          "mod": 0
        },
        "int": {
          "label": "Intimidação",
          "value": 0,
          "atributo": "car",
          "st": false,
          "pda": false,
          "treinado": false,
          "treino": 0,
          "outros": 0,
          "notes": "",
          "mod": 0
        },
        "intu": {
          "label": "Intuição",
          "value": 0,
          "atributo": "sab",
          "st": false,
          "pda": false,
          "treinado": false,
          "treino": 0,
          "outros": 0,
          "notes": "",
          "mod": 0
        },
        "inv": {
          "label": "Investigação",
          "value": 0,
          "atributo": "int",
          "st": false,
          "pda": false,
          "treinado": false,
          "treino": 0,
          "outros": 0,
          "notes": "",
          "mod": 0
        },
        "jog": {
          "label": "Jogatina",
          "value": 0,
          "atributo": "car",
          "st": false,
          "pda": false,
          "treinado": false,
          "treino": 0,
          "outros": 0,
          "notes": "",
          "mod": 0
        },
        "lad": {
          "label": "Ladinagem",
          "value": 0,
          "atributo": "des",
          "st": true,
          "pda": true,
          "treinado": false,
          "treino": 0,
          "outros": 0,
          "notes": "",
          "mod": 0
        },
        "lut": {
          "label": "Luta",
          "value": 0,
          "atributo": "for",
          "st": false,
          "pda": false,
          "treinado": false,
          "treino": 0,
          "outros": 0,
          "notes": "",
          "mod": 0
        },
        "mis": {
          "label": "Misticismo",
          "value": 0,
          "atributo": "int",
          "st": true,
          "pda": false,
          "treinado": false,
          "treino": 0,
          "outros": 0,
          "notes": "",
          "mod": 0
        },
        "nob": {
          "label": "Nobreza",
          "value": 0,
          "atributo": "int",
          "st": true,
          "pda": false,
          "treinado": false,
          "treino": 0,
          "outros": 0,
          "notes": "",
          "mod": 0
        },
        "ofi": {
          "label": "Oficios",
          "value": 0,
          "atributo": "int",
          "st": false,
          "pda": false,
          "treinado": false,
          "treino": 0,
          "outros": 0,
          "notes": "",
          "mod": 0,
          "background": true
        },
        "per": {
          "label": "Percepção",
          "value": 0,
          "atributo": "sab",
          "st": false,
          "pda": false,
          "treinado": false,
          "treino": 0,
          "outros": 0,
          "notes": "",
          "mod": 0
        },
        "pil": {
          "label": "Pilotagem",
          "value": 0,
          "atributo": "des",
          "st": true,
          "pda": false,
          "treinado": false,
          "treino": 0,
          "outros": 0,
          "notes": "",
          "mod": 0
        },
        "pon": {
          "label": "Pontaria",
          "value": 0,
          "atributo": "des",
          "st": false,
          "pda": false,
          "treinado": false,
          "treino": 0,
          "outros": 0,
          "notes": "",
          "mod": 0
        },
        "ref": {
          "label": "Reflexos",
          "value": 0,
          "atributo": "des",
          "st": false,
          "pda": false,
          "treinado": false,
          "treino": 0,
          "outros": 0,
          "notes": "",
          "mod": 0
        },
        "rel": {
          "label": "Religião",
          "value": 0,
          "atributo": "sab",
          "st": true,
          "pda": false,
          "treinado": false,
          "treino": 0,
          "outros": 0,
          "notes": "",
          "mod": 0
        },
        "sob": {
          "label": "Sobrevivência",
          "value": 0,
          "atributo": "sab",
          "st": false,
          "pda": false,
          "treinado": false,
          "treino": 0,
          "outros": 0,
          "notes": "",
          "mod": 0
        },
        "von": {
          "label": "Vontade",
          "value": 0,
          "atributo": "sab",
          "st": false,
          "pda": false,
          "treinado": false,
          "treino": 0,
          "outros": 0,
          "notes": "",
          "mod": 0
        }
      },
      "resistencias": "",
      "detalhes": {
        "biografia": "tika",
        "dinheiro": {
          "tt": 0,
          "to": 0,
          "tp": 0,
          "tc": 0
        },
        "carga": 0
      }
    }
  },
  "character": {
    "templates": ["base"],
    "detalhes": {
      "altura": 0,
      "peso": 0,
      "aparencia": "",
      "personalidade": "",
      "cargaa": {
        "value": 0,
        "medio": 3,
        "max": 10
      }
    }
  }
},
"Item": {
  "types": ["equip", "poder", "magia", "ataque"],
  "templates": {
    "base": {
      "description": ""
    }
  },
  "equip": {
    "templates": ["base"],
    "qtd": 1,
    "peso": 0
  },
  "poder": {
    "templates": ["base"],
    "custo": "",
    "roll": "",
    "tipo": ""
  },
  "magia": {
    "templates": ["base"],
    "tipo": "",
    "circulo": 1,
    "custo": 1,
    "preparada": false,
    "escola": "",
    "execucao": "",
    "alcance": "",
    "duracao": "",
    "resistencia": "",
    "alvo": "",
    "area": "",
    "efeito": ""
  },
  "ataque": {
    "templates": ["base"],
    "arma": "",
    "pericia": "lut",
    "bonusAtq": 0,
    "dano": "1d6",
    "bonusDano": "",
    "atrDan": "for",
    "criticoM": 20,
    "criticoX": 2,
    "lancinante":false,
    "tipo": "",
    "alcance": "",
    "municao": 0,
    "custo": 0
  }
}
}
